(dp1
S'nascimento'
p2
S''
sS'cidade'
p3
S''
sS'nome'
p4
S''
sS'nacionalidade'
p5
S'BRASIL'
p6
sS'sexo'
p7
S''
sS'estadocivil'
p8
S''
sS'abrevi'
p9
S'AC'
p10
sS'mae'
p11
S''
sS'cep'
p12
S''
sS'pai'
p13
S''
sS'raca'
p14
S''
sS'estado'
p15
S'\xef\xbb\xbfACRE'
p16
sS'sangue'
p17
S''
s.